(dp1
I1
I1
sI2
I1
sI3
I1
sI4
I1
sI5
I1
sI6
I1
sI7
I1
sI8
I1
sI9
I1
sI10
I1
sI11
I1
sI12
I1
sI13
I1
sI14
I1
sI15
I1
sI16
I1
sI17
I1
sI18
I1
sI19
I1
sI20
I1
sI21
I1
sI22
I1
sI23
I1
sI24
I1
sI25
I1
sI26
I1
sI27
I1
sI28
I1
sI29
I1
sI30
I1
sI31
I1
sI32
I1
sI33
I1
sI34
I1
sI35
I1
sI36
I1
sI37
S'ST'
p2
sI38
g2
sI39
g2
sI40
I0
sI41
I0
sI42
I0
sI43
I0
sI44
I0
sI45
I0
sI46
I0
sI47
I0
sI48
I0
sI49
I0
sI50
I0
sI51
I0
sI52
I0
sI53
I0
sI54
I0
sI55
I0
sI56
I0
sI57
I0
sI58
I0
sI59
I0
sI60
I0
sI61
I0
sI62
I0
sI63
I0
sI64
I0
sI65
I0
sI66
I0
sI67
I0
sI68
I0
sI69
I0
sI70
I0
sI71
I0
sI72
I0
sI73
I0
sI74
I0
sI75
I0
sI76
I0
sI77
I0
sI78
I0
sI79
I0
sI80
I0
sI81
I0
sI82
I0
sI83
I0
sI84
I0
sI85
I0
sI86
I0
sI87
I0
sI88
I0
sI89
I0
sI90
I0
sI91
I0
sI92
I0
sI93
I0
sI94
I0
sI95
I0
sI96
I0
sI97
I0
sI98
I0
sI99
I0
sI100
I0
sI101
I0
sI102
I0
sI103
I0
sI104
I0
sI105
I0
sI106
I0
sI107
I0
sI108
I0
sI109
I0
sI110
I0
sI111
I0
sI112
I0
sI113
I0
sI114
I0
sI115
I0
sI116
I0
sI117
I0
sI118
I0
sI119
I0
sI120
I0
sI121
I0
sI122
I0
sI123
I0
sI124
I0
sI125
I0
sI126
I0
sI127
I0
sI128
I0
sI129
I0
sI130
I0
sI131
I0
sI132
I0
sI133
I0
sI134
I0
sI135
I0
sI136
I0
sI137
I0
sI138
I0
sI139
I0
sI140
I0
sI141
I0
sI142
I0
sI143
I0
sI144
I0
sI145
I0
sI146
I0
sI147
I0
sI148
I0
sI149
I0
sI150
I0
sI151
I0
sI152
I0
sI153
I0
sI154
I0
sI155
I0
sI156
I0
sI157
I0
sI158
I0
sI159
I0
sI160
I0
sI161
I0
sI162
I0
sI163
I0
sI164
I0
sI165
I0
sI166
I0
sI167
I0
sI168
I0
sI169
I0
sI170
I0
sI171
I0
sI172
I0
sI173
I0
sI174
I0
sI175
I0
sI176
I0
sI177
I0
sI178
I0
sI179
I0
sI180
I0
sI181
I0
sI182
I0
sI183
I0
sI184
I0
sI185
I0
sI186
I0
sI187
I0
sI188
I0
sI189
I0
sI190
I0
sI191
I0
sI192
I0
sI193
I0
sI194
I0
sI195
I0
sI196
I0
sI197
I0
sI198
I0
sI199
I0
s.(dp1
S'ENEMY'
p2
(lp3
(lp4
I31
aI40
aI22
aI30
aa(lp5
I31
aI40
aI38
aI46
aa(lp6
I31
aI40
aI54
aI62
aa(lp7
I31
aI40
aI70
aI78
aa(lp8
I31
aI40
aI86
aI94
aa(lp9
I31
aI40
aI102
aI110
aa(lp10
I49
aI58
aI22
aI30
aa(lp11
I49
aI58
aI38
aI46
aa(lp12
I49
aI58
aI54
aI62
aa(lp13
I49
aI58
aI70
aI78
aa(lp14
I49
aI58
aI86
aI94
aa(lp15
I49
aI58
aI102
aI110
aa(lp16
I67
aI76
aI22
aI30
aa(lp17
I67
aI76
aI38
aI46
aa(lp18
I67
aI76
aI54
aI62
aa(lp19
I67
aI76
aI70
aI78
aa(lp20
I67
aI76
aI86
aI94
aa(lp21
I67
aI76
aI102
aI110
aa(lp22
I85
aI94
aI22
aI30
aa(lp23
I85
aI94
aI38
aI46
aa(lp24
I85
aI94
aI54
aI62
aa(lp25
I85
aI94
aI70
aI78
aa(lp26
I85
aI94
aI86
aI94
aa(lp27
I85
aI94
aI102
aI110
aa(lp28
I103
aI112
aI22
aI30
aa(lp29
I103
aI112
aI38
aI46
aa(lp30
I103
aI112
aI54
aI62
aa(lp31
I103
aI112
aI70
aI78
aa(lp32
I103
aI112
aI86
aI94
aa(lp33
I103
aI112
aI102
aI110
aa(lp34
I121
aI130
aI22
aI30
aa(lp35
I121
aI130
aI38
aI46
aa(lp36
I121
aI130
aI54
aI62
aa(lp37
I121
aI130
aI70
aI78
aa(lp38
I121
aI130
aI86
aI94
aa(lp39
I121
aI130
aI102
aI110
aasS'SHIELD'
p40
(lp41
(lp42
I157
aI174
aI42
aI49
aa(lp43
I157
aI174
aI74
aI81
aa(lp44
I157
aI174
aI106
aI113
aasS'BULLET'
p45
(lp46
sS'PLAYER'
p47
(lp48
s.(lp1
(dp2
a(dp3
a(dp4
a(dp5
a(dp6
a.