(dp1
I1
S'ET7'
p2
sI2
g2
sI3
g2
sI4
g2
sI5
g2
sI6
g2
sI7
I-1
sI8
S'ET8'
p3
sI9
g3
sI10
g3
sI11
g3
sI12
g3
sI13
I0
sI14
S'ET9'
p4
sI15
g4
sI16
g4
sI17
g4
sI18
g4
sI19
I0
sI20
S'ET10'
p5
sI21
g5
sI22
g5
sI23
g5
sI24
g5
sI25
I0
sI26
S'ET11'
p6
sI27
g6
sI28
g6
sI29
g6
sI30
g6
sI31
I0
sI32
S'ET12'
p7
sI33
g7
sI34
g7
sI35
g7
sI36
g7
sI37
S'ST'
p8
sI38
I-1
sI39
g8
sI40
S'PT'
p9
sI41
I0
sI42
I0
sI43
I0
sI44
I0
sI45
I0
sI46
I0
sI47
I0
sI48
I0
sI49
I0
sI50
I0
sI51
I0
sI52
I0
sI53
I0
sI54
I0
sI55
I0
sI56
I0
sI57
I0
sI58
I0
sI59
(lp10
I8
a(lp11
I123
aI130
aI38
aaI7
asI60
I0
sI61
(lp12
I8
a(lp13
I136
aI143
aI38
aaI40
asI62
(lp14
I16
a(lp15
I123
aI143
aI38
aaI1
asI63
I0
sI64
I0
sI65
I0
sI66
I0
sI67
I0
sI68
I0
sI69
I0
sI70
I0
sI71
I0
sI72
I0
sI73
I0
sI74
I0
sI75
I0
sI76
I0
sI77
I0
sI78
I0
sI79
I0
sI80
I0
sI81
I0
sI82
I0
sI83
I0
sI84
I0
sI85
I0
sI86
I0
sI87
I0
sI88
I0
sI89
I0
sI90
I0
sI91
I0
sI92
I0
sI93
I0
sI94
I0
sI95
I0
sI96
I0
sI97
I0
sI98
I0
sI99
I0
sI100
I0
sI101
I0
sI102
I0
sI103
I0
sI104
I0
sI105
I0
sI106
I0
sI107
I0
sI108
I0
sI109
I0
sI110
I0
sI111
I0
sI112
I0
sI113
I0
sI114
I0
sI115
I0
sI116
I0
sI117
I0
sI118
I0
sI119
I0
sI120
I0
sI121
I0
sI122
I0
sI123
I0
sI124
I0
sI125
I0
sI126
I0
sI127
I0
sI128
I0
sI129
I0
sI130
I0
sI131
I0
sI132
I0
sI133
I0
sI134
I0
sI135
I0
sI136
I0
sI137
I0
sI138
I0
sI139
I0
sI140
I0
sI141
I0
sI142
I0
sI143
I0
sI144
I0
sI145
I0
sI146
I0
sI147
I0
sI148
I0
sI149
I0
sI150
I0
sI151
I0
sI152
I0
sI153
I0
sI154
I0
sI155
I0
sI156
I0
sI157
I0
sI158
I0
sI159
I0
sI160
I0
sI161
I0
sI162
I0
sI163
I0
sI164
I0
sI165
I0
sI166
I0
sI167
I0
sI168
I0
sI169
I0
sI170
I0
sI171
I0
sI172
I0
sI173
I0
sI174
I0
sI175
I0
sI176
I0
sI177
I0
sI178
I0
sI179
I0
sI180
I0
sI181
I0
sI182
I0
sI183
I0
sI184
I0
sI185
I0
sI186
I0
sI187
I0
sI188
I0
sI189
I0
sI190
I0
sI191
I0
sI192
I0
sI193
I0
sI194
I0
sI195
I0
sI196
I0
sI197
I0
sI198
I0
sI199
I0
s.(dp1
S'ENEMY'
p2
(lp3
(lp4
I31
aI40
aI37
aI44
aa(lp5
I31
aI40
aI53
aI60
aa(lp6
I31
aI40
aI69
aI76
aa(lp7
I31
aI40
aI85
aI92
aa(lp8
I31
aI40
aI101
aI108
aa(lp9
I31
aI40
aI117
aI124
aa(lp10
I49
aI58
aI37
aI44
aa(lp11
I49
aI58
aI53
aI60
aa(lp12
I49
aI58
aI69
aI76
aa(lp13
I49
aI58
aI85
aI92
aa(lp14
I49
aI58
aI101
aI108
aa(lp15
I49
aI58
aI117
aI124
aa(lp16
a(lp17
I68
aI76
aI53
aI60
aa(lp18
I68
aI76
aI69
aI76
aa(lp19
I68
aI76
aI85
aI92
aa(lp20
I68
aI76
aI101
aI108
aa(lp21
I68
aI76
aI117
aI124
aa(lp22
a(lp23
I85
aI93
aI53
aI60
aa(lp24
I85
aI93
aI69
aI76
aa(lp25
I85
aI93
aI85
aI92
aa(lp26
I85
aI93
aI101
aI108
aa(lp27
I85
aI93
aI117
aI124
aa(lp28
a(lp29
I103
aI112
aI53
aI60
aa(lp30
I103
aI112
aI69
aI76
aa(lp31
I103
aI112
aI85
aI92
aa(lp32
I103
aI112
aI101
aI108
aa(lp33
I103
aI112
aI117
aI124
aa(lp34
a(lp35
I121
aI130
aI53
aI60
aa(lp36
I121
aI130
aI69
aI76
aa(lp37
I121
aI130
aI85
aI92
aa(lp38
I121
aI130
aI101
aI108
aa(lp39
I121
aI130
aI117
aI124
aasS'SHIELD'
p40
(lp41
(lp42
I157
aI174
aI42
aI49
aa(lp43
I157
aI174
aI74
aI81
aa(lp44
I157
aI174
aI106
aI113
aasS'BULLET'
p45
(lp46
(lp47
a(lp48
a(lp49
a(lp50
a(lp51
a(lp52
a(lp53
a(lp54
a(lp55
a(lp56
a(lp57
a(lp58
a(lp59
a(lp60
a(lp61
a(lp62
a(lp63
a(lp64
I123
aI130
aI38
aI38
aa(lp65
a(lp66
I136
aI143
aI38
aI38
aa(lp67
I123
aI143
aI38
aI38
aasS'PLAYER'
p68
(lp69
(lp70
I185
aI194
aI34
aI40
aas.(lp1
(dp2
a(dp3
a(dp4
a(dp5
a(dp6
a.